<?xml version="1.0" encoding="utf-8"?>
<!-- Generator: Adobe Illustrator 15.1.0, SVG Export Plug-In . SVG Version: 6.00 Build 0)  -->
<!DOCTYPE svg PUBLIC "-//W3C//DTD SVG 1.1//EN" "http://www.w3.org/Graphics/SVG/1.1/DTD/svg11.dtd">
<svg version="1.1" id="Layer_1" xmlns="http://www.w3.org/2000/svg" xmlns:xlink="http://www.w3.org/1999/xlink" x="0px" y="0px"
	 width="521.896px" height="521.896px" viewBox="0 0 521.896 521.896" enable-background="new 0 0 521.896 521.896"
	 xml:space="preserve">
<path fill="#FFFFFF" d="M45.073,354.06V168.431L168.43,45.668h187.408l120.985,121.577v186.223L353.466,476.825H168.43
	L45.073,354.06z M148.266,0L0,148.267v225.957l147.08,147.673h226.551L521.896,373.63v-226.55L376.002,0H148.266z"/>
<polygon fill="#FFFFFF" points="150.138,201.639 118.707,137.588 71.854,181.475 71.854,338.636 116.927,384.302 116.927,231.292 
	156.069,318.473 200.549,202.232 200.549,445.981 250.366,445.981 250.366,74.724 197.583,74.724 "/>
<g>
	<defs>
		<rect id="SVGID_1_" width="521.896" height="521.896"/>
	</defs>
	<clipPath id="SVGID_2_">
		<use xlink:href="#SVGID_1_"  overflow="visible"/>
	</clipPath>
	<path clip-path="url(#SVGID_2_)" fill="#FFFFFF" d="M285.204,74.724v371.257h56.935l107.938-107.345v-78.285h-83.029v45.073h30.84
		c8.303-1.186,8.896,8.304,2.965,15.42c-5.931,7.117-65.83,65.83-65.83,65.83V134.03l69.981,72.947v17.792h45.073v-41.515
		L343.324,74.724H285.204z"/>
</g>
</svg>
